…
Since our variable `Installs` is currently very widely distributed, we
will relevel installs into 3 categories: Less than 100, Between 100 and
1,000, Between 1,000 and 10,000, Between 10,000 and 100,000, and 100,000
or Greater.

Our variable `Category` is extremely large and has many levels as shown
in the graphiic below. To simplify this, we will create a new variable
called `category_simp` with two levels: one for the top 6 categories
(“FAMILY”,“GAME”, “TOOLS”,“MEDICAL”, “LIFESTYLE”, and “FINANCE”) and
another for all the other categories.

    ## # A tibble: 33 x 3
    ##    Category            n   freq
    ##    <fct>           <int>  <dbl>
    ##  1 FAMILY           1543 0.200 
    ##  2 GAME              671 0.0868
    ##  3 TOOLS             646 0.0836
    ##  4 MEDICAL           350 0.0453
    ##  5 LIFESTYLE         301 0.0389
    ##  6 FINANCE           299 0.0387
    ##  7 BUSINESS          289 0.0374
    ##  8 PERSONALIZATION   275 0.0356
    ##  9 SPORTS            269 0.0348
    ## 10 PRODUCTIVITY      262 0.0339
    ## # … with 23 more rows

    ## # A tibble: 33 x 3
    ##    Category        category_simp        n
    ##    <fct>           <chr>            <int>
    ##  1 FAMILY          Top 6 Categories  1543
    ##  2 GAME            Top 6 Categories   671
    ##  3 TOOLS           Top 6 Categories   646
    ##  4 MEDICAL         Top 6 Categories   350
    ##  5 LIFESTYLE       Top 6 Categories   301
    ##  6 FINANCE         Top 6 Categories   299
    ##  7 BUSINESS        Others             289
    ##  8 PERSONALIZATION Others             275
    ##  9 SPORTS          Others             269
    ## 10 PRODUCTIVITY    Others             262
    ## # … with 23 more rows
…
