README.utf8.md
…
Looking at the data, there are two variables related to the version, or iteration of the app as provided by the developers: Current Ver and Android Ver. Given that Google owns both Android and the Google Play Store, the company would likely be more interested in the Android version of the app. Furthermore, Android users are unlikely to be using other operating systems application stores, so a developer who is interested in creating apps for the Android market would gain more information through an examination of the compatibility of certain apps with a particular version of Android. Some data wrangling was necessary to make this variable suitable for analysis.

We also created a variable called date_since, which marks the number of days that the app has been updated since the day that the data was scraped on August 8, 2018. This will allow us to determine how recent the last update was for a particular app and provides some information related to the relative frequency of updates and how that may affect an apps rating.

There are also a number of variables which required releveling. Many of our predictors have multiple levels which made our model too complicated. To reduce the probability that the model over fits the data and is too complex, we will relevel our variables as follows:

Since our variable Price is currently not numeric and isnt coded into categories, we will relevel price into 3 categories: Free, Between 0 and 4.99 dollars, and greater than 5 dollars.

Since our variable Size is currently very widely distributed, we will relevel size into 3 categories: Varies with Device, Less than 100, and Greater than 100.

Since our variable Installs is currently very widely distributed, we will relevel installs into 3 categories: Less than 100, Between 100 and 1,000, Between 1,000 and 10,000, Between 10,000 and 100,000, and 100,000 or Greater.

Our variable Category is extremely large and has many levels as shown in the graph below. To simplify this, we will create a new variable called category_simp with two levels: one for the top 6 categories (FAMILY,GAME, TOOLS,MEDICAL, LIFESTYLE, and FINANCE) and another for all the other categories.

## # A tibble: 33 x 3
##    Category            n   freq
##    <fct>           <int>  <dbl>
##  1 FAMILY           1543 0.200 
##  2 GAME              671 0.0868
##  3 TOOLS             646 0.0836
##  4 MEDICAL           350 0.0453
##  5 LIFESTYLE         301 0.0389
##  6 FINANCE           299 0.0387
##  7 BUSINESS          289 0.0374
##  8 PERSONALIZATION   275 0.0356
##  9 SPORTS            269 0.0348
## 10 PRODUCTIVITY      262 0.0339
## #  with 23 more rows

## # A tibble: 33 x 3
##    Category        category_simp        n
##    <fct>           <chr>            <int>
##  1 FAMILY          Top 6 Categories  1543
##  2 GAME            Top 6 Categories   671
##  3 TOOLS           Top 6 Categories   646
##  4 MEDICAL         Top 6 Categories   350
##  5 LIFESTYLE       Top 6 Categories   301
##  6 FINANCE         Top 6 Categories   299
##  7 BUSINESS        Others             289
##  8 PERSONALIZATION Others             275
##  9 SPORTS          Others             269
## 10 PRODUCTIVITY    Others             262
## #  with 23 more rows
…
## # A tibble: 33 x 2
##    `apps$Category`         n
##    <fct>               <int>
##  1 ART_AND_DESIGN         58
##  2 AUTO_AND_VEHICLES      72
##  3 BEAUTY                 42
##  4 BOOKS_AND_REFERENCE   153
##  5 BUSINESS              289
##  6 COMICS                 54
##  7 COMMUNICATION         211
##  8 DATING                179
##  9 EDUCATION             127
## 10 ENTERTAINMENT         105
## #  with 23 more rows
…
Lets filter to see the total # of points that crossed the threshold.

## # A tibble: 214 x 2
##    category_simp    Size               
##    <chr>            <chr>              
##  1 Others           Greater than 100 MB
##  2 Others           Greater than 100 MB
##  3 Others           Greater than 100 MB
##  4 Others           Greater than 100 MB
##  5 Others           Greater than 100 MB
##  6 Others           Greater than 100 MB
##  7 Others           Greater than 100 MB
##  8 Others           Greater than 100 MB
##  9 Others           Greater than 100 MB
## 10 Top 6 Categories Greater than 100 MB
## #  with 204 more rows
…
As depicted the plot, there are a number of points which violate this threshold, so lets filter the data to get an exact number.

## # A tibble: 363 x 2
##    category_simp Size            
##    <chr>         <chr>           
##  1 Others        Less than 100 MB
##  2 Others        Less than 100 MB
##  3 Others        Less than 100 MB
##  4 Others        Less than 100 MB
##  5 Others        Less than 100 MB
##  6 Others        Less than 100 MB
##  7 Others        Less than 100 MB
##  8 Others        Less than 100 MB
##  9 Others        Less than 100 MB
## 10 Others        Less than 100 MB
## #  with 353 more rows
…
