…
As shown above, the distribution of our response variable, `rating`
appears to be left-skewed. This will be important to take into account
as we continue our analysis as it may require a transformation; however,
our model is robust to departures in normality so we will continue. We
determined to report median and IQR as our summary statistics because
the distribution of `rating` appears to be left-skewed. The median
rating of an app is approximately **4.3** and the IQR is **0.5**.

#### Univariate Analysis

    ## # A tibble: 33 x 2
    ##    Category          n
    ##    <fct>         <int>
    ##  1 FAMILY         1747
    ##  2 GAME           1097
    ##  3 TOOLS           734
    ##  4 PRODUCTIVITY    351
    ##  5 MEDICAL         350
    ##  6 COMMUNICATION   328
    ##  7 FINANCE         323
    ##  8 SPORTS          319
    ##  9 PHOTOGRAPHY     317
    ## 10 LIFESTYLE       314
    ## # … with 23 more rows
…
