…
    ## # A tibble: 1 x 2
    ##   `median(Rating)` `IQR(Rating)`
    ##              <dbl>         <dbl>
    ## 1              4.3           0.5

``` r
count(apps, Category) %>% 
  arrange(desc(n)) 
```

    ## # A tibble: 33 x 2
    ##    Category          n
    ##    <chr>         <int>
    ##  1 FAMILY         1747
    ##  2 GAME           1097
    ##  3 TOOLS           734
    ##  4 PRODUCTIVITY    351
    ##  5 MEDICAL         350
    ##  6 COMMUNICATION   328
    ##  7 FINANCE         323
    ##  8 SPORTS          319
    ##  9 PHOTOGRAPHY     317
    ## 10 LIFESTYLE       314
    ## # … with 23 more rows
…
